Overlap of GO Terms in DEGs
…
$CX_0.5_24
# A tibble: 3 × 3
  GO_ID      Function                                                   p.adjust
  <chr>      <chr>                                                         <dbl>
1 GO:0008630 intrinsic apoptotic signaling pathway in response to DNA …   0.0196
2 GO:0071539 protein localization to centrosome                           0.0330
3 GO:1905508 protein localization to microtubule organizing center        0.0363

$CX_0.5_48
# A tibble: 23 × 3
   GO_ID      Function                                              p.adjust
   <chr>      <chr>                                                    <dbl>
 1 GO:0031507 heterochromatin formation                             0.000678
 2 GO:0070828 heterochromatin organization                          0.00134 
 3 GO:0032200 telomere organization                                 0.00509 
 4 GO:0006305 DNA alkylation                                        0.00675 
 5 GO:0006306 DNA methylation                                       0.00675 
 6 GO:0009129 pyrimidine nucleoside monophosphate metabolic process 0.00985 
 7 GO:0051446 positive regulation of meiotic cell cycle             0.00985 
 8 GO:0031100 animal organ regeneration                             0.0137  
 9 GO:0009219 pyrimidine deoxyribonucleotide metabolic process      0.0148  
10 GO:0006544 glycine metabolic process                             0.0189  
# ℹ 13 more rows

$DOX_0.1_3
# A tibble: 4 × 3
  GO_ID      Function                                p.adjust
  <chr>      <chr>                                      <dbl>
1 GO:1900034 regulation of cellular response to heat   0.0105
2 GO:0034605 cellular response to heat                 0.0167
3 GO:0009408 response to heat                          0.0172
4 GO:0009266 response to temperature stimulus          0.0203

$DOX_0.1_24
# A tibble: 48 × 3
   GO_ID      Function                                             p.adjust
   <chr>      <chr>                                                   <dbl>
 1 GO:0070372 regulation of ERK1 and ERK2 cascade                  0.000752
 2 GO:0001759 organ induction                                      0.00146 
 3 GO:0070371 ERK1 and ERK2 cascade                                0.00185 
 4 GO:0032609 type II interferon production                        0.00247 
 5 GO:0032649 regulation of type II interferon production          0.00247 
 6 GO:0008585 female gonad development                             0.00284 
 7 GO:0061458 reproductive system development                      0.00335 
 8 GO:0010712 regulation of collagen metabolic process             0.00427 
 9 GO:0048608 reproductive structure development                   0.00440 
10 GO:0046545 development of primary female sexual characteristics 0.00536 
# ℹ 38 more rows

$DOX_0.1_48
# A tibble: 27 × 3
   GO_ID      Function                                        p.adjust
   <chr>      <chr>                                              <dbl>
 1 GO:1901136 carbohydrate derivative catabolic process       0.000105
 2 GO:0006516 glycoprotein catabolic process                  0.000480
 3 GO:0008045 motor neuron axon guidance                      0.00661 
 4 GO:0030903 notochord development                           0.00992 
 5 GO:0086010 membrane depolarization during action potential 0.0162  
 6 GO:0034644 cellular response to UV                         0.0162  
 7 GO:0001508 action potential                                0.0164  
 8 GO:0043062 extracellular structure organization            0.0168  
 9 GO:0097205 renal filtration                                0.0211  
10 GO:0051899 membrane depolarization                         0.0220  
# ℹ 17 more rows

$DOX_0.5_3
# A tibble: 49 × 3
   GO_ID      Function                                                  p.adjust
   <chr>      <chr>                                                        <dbl>
 1 GO:0060411 cardiac septum morphogenesis                                0.0186
 2 GO:0003007 heart morphogenesis                                         0.0186
 3 GO:0060840 artery development                                          0.0186
 4 GO:0035270 endocrine system development                                0.0186
 5 GO:0030098 lymphocyte differentiation                                  0.0186
 6 GO:0003279 cardiac septum development                                  0.0186
 7 GO:0045165 cell fate commitment                                        0.0207
 8 GO:0090092 regulation of transmembrane receptor protein serine/thre…   0.0207
 9 GO:0003281 ventricular septum development                              0.0207
10 GO:0048844 artery morphogenesis                                        0.0207
# ℹ 39 more rows
…
